<svg width="390" height="844" viewBox="0 0 390 844" fill="none" xmlns="http://www.w3.org/2000/svg">
<g clip-path="url(#clip0_355_1049)">
<rect width="390" height="844" fill="white"/>
<circle cx="424.5" cy="529.5" r="275.5" fill="#248277" fill-opacity="0.1"/>
<circle cx="8.5" cy="771.5" r="271.5" fill="#78C6A3" fill-opacity="0.2"/>
<circle cx="-0.5" cy="-51.5" r="271.5" fill="#248277" fill-opacity="0.1"/>
</g>
<defs>
<clipPath id="clip0_355_1049">
<rect width="390" height="844" fill="white"/>
</clipPath>
</defs>
</svg>
